<?xml version="1.0" encoding="UTF-8" standalone="no"?>
<svg
   xmlns:dc="http://purl.org/dc/elements/1.1/"
   xmlns:cc="http://creativecommons.org/ns#"
   xmlns:rdf="http://www.w3.org/1999/02/22-rdf-syntax-ns#"
   xmlns:svg="http://www.w3.org/2000/svg"
   xmlns="http://www.w3.org/2000/svg"
   xmlns:sodipodi="http://sodipodi.sourceforge.net/DTD/sodipodi-0.dtd"
   xmlns:inkscape="http://www.inkscape.org/namespaces/inkscape"
   version="1.1"
   id="Слой_1"
   inkscape:version="1.0.1 (c497b03c, 2020-09-10)"
   sodipodi:docname="add_zone.svg"
   x="0px"
   y="0px"
   viewBox="0 0 24 24"
   style="enable-background:new 0 0 24 24;"
   xml:space="preserve"><metadata
   id="metadata843"><rdf:RDF><cc:Work
       rdf:about=""><dc:format>image/svg+xml</dc:format><dc:type
         rdf:resource="http://purl.org/dc/dcmitype/StillImage" /><dc:title>add_zone_2</dc:title><cc:license
         rdf:resource="http://creativecommons.org/licenses/by-sa/4.0/" /></cc:Work><cc:License
       rdf:about="http://creativecommons.org/licenses/by-sa/4.0/"><cc:permits
         rdf:resource="http://creativecommons.org/ns#Reproduction" /><cc:permits
         rdf:resource="http://creativecommons.org/ns#Distribution" /><cc:requires
         rdf:resource="http://creativecommons.org/ns#Notice" /><cc:requires
         rdf:resource="http://creativecommons.org/ns#Attribution" /><cc:permits
         rdf:resource="http://creativecommons.org/ns#DerivativeWorks" /><cc:requires
         rdf:resource="http://creativecommons.org/ns#ShareAlike" /></cc:License></rdf:RDF></metadata><defs
   id="defs841" />
<style
   type="text/css"
   id="style833">
	.st0{fill:#42B8EB;stroke:#42B8EB;}
</style>
<sodipodi:namedview
   bordercolor="#666666"
   borderopacity="1"
   gridtolerance="10"
   guidetolerance="10"
   id="namedview32"
   inkscape:current-layer="Слой_1"
   inkscape:cx="11.878286"
   inkscape:cy="13.625304"
   inkscape:document-rotation="0"
   inkscape:pageopacity="0"
   inkscape:pageshadow="2"
   inkscape:window-height="1035"
   inkscape:window-maximized="1"
   inkscape:window-width="1920"
   inkscape:window-x="0"
   inkscape:window-y="23"
   inkscape:zoom="29.591716"
   objecttolerance="10"
   pagecolor="#111111"
   showgrid="true">
	<inkscape:grid
   id="grid857"
   type="xygrid"
   spacingx="0.5"
   spacingy="0.5"
   empspacing="2"
   color="#ceceff"
   opacity="0.1254902" />
</sodipodi:namedview>
<title
   id="title13">add_zone_2</title>
<path
   id="polygon838"
   style="fill:#42B8EB;stroke:none"
   d="M 8 2 L 8 12 L 2 12 L 2 22 L 22 22 L 22 14 L 19.644531 14 A 4 4 0 0 1 17 15 A 4 4 0 0 1 13 11 A 4 4 0 0 1 16.939453 7 A 4 4 0 0 1 17 7 A 4 4 0 0 1 19.644531 8 L 22 8 L 22 2 L 8 2 z " />
<circle
   style="fill:#F4EFF3;fill-opacity:1;stroke:none;stroke-width:1.00157;stroke-linecap:round;stroke-linejoin:round"
   id="path867"
   cx="17"
   cy="11"
   r="2" /><rect
   style="fill:#F4EFF3;fill-opacity:1;stroke:none;stroke-width:1.00157;stroke-linecap:round;stroke-linejoin:round"
   id="rect869"
   width="5"
   height="2"
   x="17"
   y="10" /></svg>
