<?xml version="1.0" encoding="UTF-8" standalone="no"?>
<svg
   xmlns:dc="http://purl.org/dc/elements/1.1/"
   xmlns:cc="http://creativecommons.org/ns#"
   xmlns:rdf="http://www.w3.org/1999/02/22-rdf-syntax-ns#"
   xmlns:svg="http://www.w3.org/2000/svg"
   xmlns="http://www.w3.org/2000/svg"
   xmlns:sodipodi="http://sodipodi.sourceforge.net/DTD/sodipodi-0.dtd"
   xmlns:inkscape="http://www.inkscape.org/namespaces/inkscape"
   id="Слой_1"
   data-name="Слой 1"
   viewBox="0 0 24 24"
   version="1.1"
   sodipodi:docname="add_zone_cutout.svg"
   inkscape:version="1.0.1 (c497b03c, 2020-09-10)">
  <sodipodi:namedview
     pagecolor="#111111"
     bordercolor="#666666"
     borderopacity="1"
     objecttolerance="10"
     gridtolerance="10"
     guidetolerance="10"
     inkscape:pageopacity="0"
     inkscape:pageshadow="2"
     inkscape:window-width="1609"
     inkscape:window-height="1035"
     id="namedview30"
     showgrid="true"
     inkscape:zoom="32.354403"
     inkscape:cx="13.289139"
     inkscape:cy="14.323504"
     inkscape:window-x="0"
     inkscape:window-y="23"
     inkscape:window-maximized="0"
     inkscape:document-rotation="0"
     inkscape:current-layer="Слой_1">
    <inkscape:grid
       type="xygrid"
       id="grid_kicad"
       spacingx="0.5"
       spacingy="0.5"
       color="#9999ff"
       opacity="0.13"
       empspacing="2" />
  </sodipodi:namedview>
  <metadata
     id="metadata43">
    <rdf:RDF>
      <cc:Work
         rdf:about="">
        <cc:license
           rdf:resource="http://creativecommons.org/licenses/by-sa/4.0/" />
        <dc:format>image/svg+xml</dc:format>
        <dc:type
           rdf:resource="http://purl.org/dc/dcmitype/StillImage" />
        <dc:title>add_arc</dc:title>
      </cc:Work>
      <cc:License
         rdf:about="http://creativecommons.org/licenses/by-sa/4.0/">
        <cc:permits
           rdf:resource="http://creativecommons.org/ns#Reproduction" />
        <cc:permits
           rdf:resource="http://creativecommons.org/ns#Distribution" />
        <cc:requires
           rdf:resource="http://creativecommons.org/ns#Notice" />
        <cc:requires
           rdf:resource="http://creativecommons.org/ns#Attribution" />
        <cc:permits
           rdf:resource="http://creativecommons.org/ns#DerivativeWorks" />
        <cc:requires
           rdf:resource="http://creativecommons.org/ns#ShareAlike" />
      </cc:License>
    </rdf:RDF>
  </metadata>
  <defs
     id="defs115786">
    <style
       id="style115784">.cls-1{fill:#8f8f8f;}.cls-2{fill:none;stroke:#F4EFF3;stroke-linecap:round;stroke-linejoin:round;stroke-width:2px;}.cls-3{fill:#42B8EB;}</style>
  </defs>
  <title
     id="title115788">add_zone_cutout</title>
  <path
     id="polyline115792"
     style="fill:#8f8f8f;fill-opacity:1;stroke:#F4EFF3;stroke-width:2px;stroke-linecap:round;stroke-linejoin:round"
     transform="matrix(1.0843314,0,0,1,-1.5097832,-1)"
     d="M 18.914682,20 H 6.0034997 V 6 H 16.148"
     class="cls-2"
     sodipodi:nodetypes="cccc" />
  <path
     class="cls-3"
     d="M 8,5 A 3,3 0 1 1 5,2 3,3 0 0 1 8,5 Z"
     id="path115794" />
  <path
     class="cls-3"
     d="M 8,19 A 3,3 0 1 1 5,16 3,3 0 0 1 8,19 Z"
     id="path115796" />
  <path
     class="cls-3"
     d="m 22,19 a 3,3 0 1 1 -3,-3 3,3 0 0 1 3,3 z"
     id="path115798" />
  <path
     class="cls-3"
     d="M 19,5 A 3,3 0 1 1 16,2 3,3 0 0 1 19,5 Z"
     id="path115800" />
</svg>
