<?xml version="1.0" encoding="UTF-8" standalone="no"?>
<svg
   xmlns:dc="http://purl.org/dc/elements/1.1/"
   xmlns:cc="http://creativecommons.org/ns#"
   xmlns:rdf="http://www.w3.org/1999/02/22-rdf-syntax-ns#"
   xmlns:svg="http://www.w3.org/2000/svg"
   xmlns="http://www.w3.org/2000/svg"
   xmlns:sodipodi="http://sodipodi.sourceforge.net/DTD/sodipodi-0.dtd"
   xmlns:inkscape="http://www.inkscape.org/namespaces/inkscape"
   id="Слой_1"
   data-name="Слой 1"
   viewBox="0 0 24 24"
   version="1.1"
   sodipodi:docname="axis3d_back.svg"
   inkscape:version="1.0.1 (3bc2e813f5, 2020-09-07)">
  <sodipodi:namedview
     pagecolor="#111111"
     bordercolor="#666666"
     borderopacity="1"
     objecttolerance="10"
     gridtolerance="10"
     guidetolerance="10"
     inkscape:pageopacity="0"
     inkscape:pageshadow="2"
     inkscape:window-width="1609"
     inkscape:window-height="1286"
     id="namedview30"
     showgrid="true"
     inkscape:zoom="27.961538"
     inkscape:cx="3.3259971"
     inkscape:cy="13"
     inkscape:window-x="0"
     inkscape:window-y="37"
     inkscape:window-maximized="0"
     inkscape:document-rotation="0"
     inkscape:current-layer="Слой_1">
    <inkscape:grid
       type="xygrid"
       id="grid_kicad"
       spacingx="0.5"
       spacingy="0.5"
       color="#9999ff"
       opacity="0.13"
       empspacing="2" />
  </sodipodi:namedview>
  <metadata
     id="metadata43">
    <rdf:RDF>
      <cc:Work
         rdf:about="">
        <cc:license
           rdf:resource="http://creativecommons.org/licenses/by-sa/4.0/" />
        <dc:format>image/svg+xml</dc:format>
        <dc:type
           rdf:resource="http://purl.org/dc/dcmitype/StillImage" />
        <dc:title>add_arc</dc:title>
      </cc:Work>
      <cc:License
         rdf:about="http://creativecommons.org/licenses/by-sa/4.0/">
        <cc:permits
           rdf:resource="http://creativecommons.org/ns#Reproduction" />
        <cc:permits
           rdf:resource="http://creativecommons.org/ns#Distribution" />
        <cc:requires
           rdf:resource="http://creativecommons.org/ns#Notice" />
        <cc:requires
           rdf:resource="http://creativecommons.org/ns#Attribution" />
        <cc:permits
           rdf:resource="http://creativecommons.org/ns#DerivativeWorks" />
        <cc:requires
           rdf:resource="http://creativecommons.org/ns#ShareAlike" />
      </cc:License>
    </rdf:RDF>
  </metadata>
  <defs
     id="defs116026">
    <style
       id="style116024">.cls-1{fill:#1A81C4;stroke:#42B8EB;}.cls-1,.cls-2,.cls-3{stroke-linecap:round;stroke-linejoin:round;}.cls-2,.cls-3{fill:none;stroke:#F4EFF3;}.cls-3{stroke-dasharray:2.8252 2.8252;}</style>
  </defs>
  <title
     id="title116028">axis3d_back</title>
  <polygon
     class="cls-1"
     points="12.992,13.745 13.001,1.5 23.445,7.734 23.501,18.392 "
     id="polygon116030"
     transform="translate(-1,-1)" />
  <polyline
     class="cls-2"
     points="23.501 7.642 23.501 18.392 13.001 24.5 12.999 24.5 2.499 18.392 2.499 7.642"
     id="polyline116032"
     transform="translate(-1,-1)" />
  <polyline
     class="cls-2"
     points="23.501 7.637 13.001 13.745 12.999 13.745 2.499 7.637"
     id="polyline116034"
     transform="translate(-1,-1)" />
  <polyline
     class="cls-2"
     points="2.499 7.608 12.999 1.5 13.001 1.5 23.501 7.608"
     id="polyline116036"
     transform="translate(-1,-1)" />
  <line
     class="cls-2"
     x1="11.9987"
     y1="12.7452"
     x2="11.9987"
     y2="23.5"
     id="line116038" />
  <line
     class="cls-2"
     x1="1.4991"
     y1="17.391701"
     x2="2.8706999"
     y2="16.784401"
     id="line116040" />
  <line
     class="cls-3"
     x1="5.4538999"
     y1="15.6404"
     x2="9.3287001"
     y2="13.9245"
     id="line116042" />
  <line
     class="cls-2"
     x1="10.6203"
     y1="13.3525"
     x2="11.9919"
     y2="12.7452"
     id="line116044" />
</svg>
