<?xml version="1.0" encoding="UTF-8" standalone="no"?>
<svg
   xmlns:dc="http://purl.org/dc/elements/1.1/"
   xmlns:cc="http://creativecommons.org/ns#"
   xmlns:rdf="http://www.w3.org/1999/02/22-rdf-syntax-ns#"
   xmlns:svg="http://www.w3.org/2000/svg"
   xmlns="http://www.w3.org/2000/svg"
   xmlns:sodipodi="http://sodipodi.sourceforge.net/DTD/sodipodi-0.dtd"
   xmlns:inkscape="http://www.inkscape.org/namespaces/inkscape"
   id="Слой_1"
   data-name="Слой 1"
   viewBox="0 0 24 24"
   version="1.1"
   sodipodi:docname="axis3d_right.svg"
   inkscape:version="1.0.1 (3bc2e813f5, 2020-09-07)">
  <sodipodi:namedview
     pagecolor="#111111"
     bordercolor="#666666"
     borderopacity="1"
     objecttolerance="10"
     gridtolerance="10"
     guidetolerance="10"
     inkscape:pageopacity="0"
     inkscape:pageshadow="2"
     inkscape:window-width="1609"
     inkscape:window-height="1286"
     id="namedview30"
     showgrid="true"
     inkscape:zoom="27.961538"
     inkscape:cx="3.3259971"
     inkscape:cy="13"
     inkscape:window-x="0"
     inkscape:window-y="37"
     inkscape:window-maximized="0"
     inkscape:document-rotation="0"
     inkscape:current-layer="Слой_1">
    <inkscape:grid
       type="xygrid"
       id="grid_kicad"
       spacingx="0.5"
       spacingy="0.5"
       color="#9999ff"
       opacity="0.13"
       empspacing="2" />
  </sodipodi:namedview>
  <metadata
     id="metadata43">
    <rdf:RDF>
      <cc:Work
         rdf:about="">
        <cc:license
           rdf:resource="http://creativecommons.org/licenses/by-sa/4.0/" />
        <dc:format>image/svg+xml</dc:format>
        <dc:type
           rdf:resource="http://purl.org/dc/dcmitype/StillImage" />
        <dc:title>add_arc</dc:title>
      </cc:Work>
      <cc:License
         rdf:about="http://creativecommons.org/licenses/by-sa/4.0/">
        <cc:permits
           rdf:resource="http://creativecommons.org/ns#Reproduction" />
        <cc:permits
           rdf:resource="http://creativecommons.org/ns#Distribution" />
        <cc:requires
           rdf:resource="http://creativecommons.org/ns#Notice" />
        <cc:requires
           rdf:resource="http://creativecommons.org/ns#Attribution" />
        <cc:permits
           rdf:resource="http://creativecommons.org/ns#DerivativeWorks" />
        <cc:requires
           rdf:resource="http://creativecommons.org/ns#ShareAlike" />
      </cc:License>
    </rdf:RDF>
  </metadata>
  <defs
     id="defs116078">
    <style
       id="style116076">.cls-1,.cls-2,.cls-3{fill:none;stroke:#F4EFF3;}.cls-1,.cls-2,.cls-3,.cls-4{stroke-linecap:round;stroke-linejoin:round;}.cls-2{stroke-dasharray:3.0817 3.0817;}.cls-3{stroke-dasharray:2.8252 2.8252;}.cls-4{fill:#1A81C4;stroke:#42B8EB;}</style>
  </defs>
  <title
     id="title116080">axis_3d_right</title>
  <polyline
     class="cls-1"
     points="13.001 24.5 12.999 24.5 2.499 18.392 2.499 7.642"
     id="polyline116082"
     transform="translate(-1,-1)" />
  <polyline
     class="cls-1"
     points="2.499 7.637 12.999 13.745 13.001 13.745"
     id="polyline116084"
     transform="translate(-1,-1)" />
  <polyline
     class="cls-1"
     points="2.499 7.608 12.999 1.5 13.001 1.5 23.501 7.608"
     id="polyline116086"
     transform="translate(-1,-1)" />
  <line
     class="cls-1"
     x1="12.0013"
     y1="0.5"
     x2="12.0001"
     y2="2"
     id="line116088" />
  <line
     class="cls-2"
     x1="11.9978"
     y1="5.0816998"
     x2="11.9941"
     y2="9.7042999"
     id="line116090" />
  <line
     class="cls-1"
     x1="11.9929"
     y1="11.2452"
     x2="11.9918"
     y2="12.7452"
     id="line116092" />
  <line
     class="cls-1"
     x1="1.4990001"
     y1="17.391701"
     x2="2.8706"
     y2="16.784401"
     id="line116094" />
  <line
     class="cls-3"
     x1="5.4538999"
     y1="15.6404"
     x2="9.3285999"
     y2="13.9245"
     id="line116096" />
  <line
     class="cls-1"
     x1="10.6202"
     y1="13.3525"
     x2="11.9918"
     y2="12.7452"
     id="line116098" />
  <polygon
     class="cls-4"
     points="23.501,7.637 23.501,7.642 23.501,18.392 13.001,24.5 13.001,13.745 "
     id="polygon116100"
     transform="translate(-1,-1)" />
</svg>
