<?xml version="1.0" encoding="UTF-8" standalone="no"?>
<svg
   xmlns:dc="http://purl.org/dc/elements/1.1/"
   xmlns:cc="http://creativecommons.org/ns#"
   xmlns:rdf="http://www.w3.org/1999/02/22-rdf-syntax-ns#"
   xmlns:svg="http://www.w3.org/2000/svg"
   xmlns="http://www.w3.org/2000/svg"
   xmlns:sodipodi="http://sodipodi.sourceforge.net/DTD/sodipodi-0.dtd"
   xmlns:inkscape="http://www.inkscape.org/namespaces/inkscape"
   id="Слой_1"
   data-name="Слой 1"
   viewBox="0 0 24 24"
   version="1.1"
   sodipodi:docname="image.svg"
   inkscape:version="1.0.1 (c497b03c, 2020-09-10)"
   width="24"
   height="24">
  <sodipodi:namedview
     pagecolor="#111111"
     bordercolor="#666666"
     borderopacity="1"
     objecttolerance="10"
     gridtolerance="10"
     guidetolerance="10"
     inkscape:pageopacity="0"
     inkscape:pageshadow="2"
     inkscape:window-width="2560"
     inkscape:window-height="1371"
     id="namedview30"
     showgrid="true"
     inkscape:zoom="27.961538"
     inkscape:cx="-3.5584597"
     inkscape:cy="13"
     inkscape:window-x="0"
     inkscape:window-y="0"
     inkscape:window-maximized="1"
     inkscape:document-rotation="0"
     inkscape:current-layer="Слой_1">
    <inkscape:grid
       type="xygrid"
       id="grid_kicad"
       spacingx="0.5"
       spacingy="0.5"
       color="#9999ff"
       opacity="0.13"
       empspacing="2" />
  </sodipodi:namedview>
  <metadata
     id="metadata43">
    <rdf:RDF>
      <cc:Work
         rdf:about="">
        <cc:license
           rdf:resource="http://creativecommons.org/licenses/by-sa/4.0/" />
        <dc:format>image/svg+xml</dc:format>
        <dc:type
           rdf:resource="http://purl.org/dc/dcmitype/StillImage" />
        <dc:title>add_arc</dc:title>
      </cc:Work>
      <cc:License
         rdf:about="http://creativecommons.org/licenses/by-sa/4.0/">
        <cc:permits
           rdf:resource="http://creativecommons.org/ns#Reproduction" />
        <cc:permits
           rdf:resource="http://creativecommons.org/ns#Distribution" />
        <cc:requires
           rdf:resource="http://creativecommons.org/ns#Notice" />
        <cc:requires
           rdf:resource="http://creativecommons.org/ns#Attribution" />
        <cc:permits
           rdf:resource="http://creativecommons.org/ns#DerivativeWorks" />
        <cc:requires
           rdf:resource="http://creativecommons.org/ns#ShareAlike" />
      </cc:License>
    </rdf:RDF>
  </metadata>
  <defs
     id="defs157777">
    <style
       id="style157775">.cls-1{fill:#8f8f8f;}.cls-2{fill:#F4EFF3;}</style>
  </defs>
  <title
     id="title157779">image</title>
  <rect
     class="cls-1"
     x="1"
     y="1"
     width="22"
     height="22"
     rx="4"
     id="rect157781"
     style="fill:#F4EFF3;fill-opacity:1;stroke-width:1"
     ry="4" />
  <path
     class="cls-2"
     d="M 3.0543472,19.286103 7.556278,10.530987 C 7.8790546,9.9033241 8.7389262,9.8134818 9.1841546,10.360901 l 4.5760184,5.787618 c 0.37921,0.466165 1.084466,0.483328 1.485844,0.03616 l 1.228586,-1.369359 c 0.430086,-0.479214 1.197164,-0.419163 1.547647,0.121158 l 2.898811,4.307218 c 0.211359,0.325731 -0.02215,0.756384 -0.410086,0.756302 H 3.4890992 C 3.122926,20.000132 2.886562,19.612005 3.0543472,19.286103 Z"
     id="path157783"
     style="fill:#111111;fill-opacity:1;stroke-width:0.999998"
     sodipodi:nodetypes="ccccccccccc" />
  <circle
     class="cls-2"
     cx="15.5"
     cy="6.5"
     id="circle157785"
     style="fill:#111111;fill-opacity:1;stroke-width:1"
     r="2.5" />
</svg>
