<?xml version="1.0" encoding="UTF-8" standalone="no"?>
<svg xmlns:dc="http://purl.org/dc/elements/1.1/"
   xmlns:cc="http://creativecommons.org/ns#"
   xmlns:rdf="http://www.w3.org/1999/02/22-rdf-syntax-ns#"
   xmlns:svg="http://www.w3.org/2000/svg"
   xmlns="http://www.w3.org/2000/svg"
   xmlns:sodipodi="http://sodipodi.sourceforge.net/DTD/sodipodi-0.dtd"
   xmlns:inkscape="http://www.inkscape.org/namespaces/inkscape" id="Слой_1" data-name="Слой 1" viewBox="0 0 24 24" version="1.1" sodipodi:docname="library_archive.svg" inkscape:version="1.0.1 (3bc2e813f5, 2020-09-07)">
   <g id="g862" transform="rotate(-45,15.336143,11.271492)">
      <circle class="cls-2" cx="6.3735094" cy="-0.091957502" r="1.5460253" id="circle13" transform="matrix(0.69770677,0.71638346,-0.69770677,0.71638346,0,0)" style="stroke-width:1.25022;stroke-miterlimit:4;stroke-dasharray:none" />
      <line class="cls-3" x1="17.831593" y1="4.4999642" x2="15.724769" y2="4.5000353" id="line15" style="stroke:#42B8EB;stroke-opacity:1" />
      <line class="cls-3" x1="6" y1="4.4999995" x2="8.1068954" y2="4.5" id="line17" style="stroke:#42B8EB;stroke-opacity:1" />
      <rect class="cls-4" x="2.9997208" y="-16.000051" width="3.0001395" height="7.9999466" transform="rotate(90.001)" id="rect19" />
      <circle class="cls-2" cx="17.122944" cy="-10.841354" r="1.5460346" id="circle855" transform="matrix(0.69771122,0.71637913,-0.69771122,0.71637913,0,0)" style="stroke-width:1.25022;stroke-miterlimit:4;stroke-dasharray:none" />
   </g>
   <sodipodi:namedview pagecolor="#111111" bordercolor="#666666" borderopacity="1" objecttolerance="10" gridtolerance="10" guidetolerance="10" inkscape:pageopacity="0" inkscape:pageshadow="2" inkscape:window-width="2586" inkscape:window-height="1275" id="namedview58" showgrid="true" inkscape:zoom="22.627417" inkscape:cx="13.894619" inkscape:cy="21.327474" inkscape:window-x="1223" inkscape:window-y="85" inkscape:window-maximized="0" inkscape:current-layer="g906" inkscape:document-rotation="0">
      <inkscape:grid type="xygrid" id="grid853" spacingx="0.5" spacingy="0.5" color="#afafff" opacity="0.1254902" empspacing="2" />
   </sodipodi:namedview>
   <metadata id="metadata43">
      <rdf:RDF>
         <cc:Work rdf:about="">
            <cc:license rdf:resource="http://creativecommons.org/licenses/by-sa/4.0/" />
            <dc:format>image/svg+xml</dc:format>
            <dc:type rdf:resource="http://purl.org/dc/dcmitype/StillImage" />
            <dc:title>add_arc</dc:title>
         </cc:Work>
         <cc:License rdf:about="http://creativecommons.org/licenses/by-sa/4.0/">
            <cc:permits rdf:resource="http://creativecommons.org/ns#Reproduction" />
            <cc:permits rdf:resource="http://creativecommons.org/ns#Distribution" />
            <cc:requires rdf:resource="http://creativecommons.org/ns#Notice" />
            <cc:requires rdf:resource="http://creativecommons.org/ns#Attribution" />
            <cc:permits rdf:resource="http://creativecommons.org/ns#DerivativeWorks" />
            <cc:requires rdf:resource="http://creativecommons.org/ns#ShareAlike" />
         </cc:License>
      </rdf:RDF>
   </metadata>
   <defs id="defs5">
      <style id="style3">.cls-1{fill:#d8d8d8;}.cls-2,.cls-3,.cls-7,.cls-8{fill:none;stroke-linecap:round;stroke-linejoin:round;}.cls-2{stroke:#42B8EB;}.cls-2,.cls-3{stroke-width:0.9549px;}.cls-3{stroke:#0f71a8;}.cls-4{fill:#42B8EB;}.cls-5{fill:#8f8f8f;}.cls-6{fill:#F4EFF3;}.cls-7{stroke:#8f8f8f;stroke-width:0.5px;}.cls-8{stroke:#DC7A8C;stroke-width:2px;}</style>
   </defs>
   <title id="title7">library_archive</title>
   <g id="g886" transform="translate(-1)">
      <rect class="cls-6" x="10" y="11" width="4" height="11" id="rect23" />
      <path id="line31" style="fill:none;stroke:#8f8f8f;stroke-width:1;stroke-linecap:round;stroke-linejoin:round;stroke-miterlimit:4;stroke-dasharray:none" d="m 11,12.5 h 2" sodipodi:nodetypes="cc" />
      <path id="path866" style="fill:none;stroke:#8f8f8f;stroke-width:1;stroke-linecap:round;stroke-linejoin:round;stroke-miterlimit:4;stroke-dasharray:none" d="m 11,14.5 h 2" sodipodi:nodetypes="cc" />
      <path id="path868" style="fill:none;stroke:#8f8f8f;stroke-width:1;stroke-linecap:round;stroke-linejoin:round;stroke-miterlimit:4;stroke-dasharray:none" d="m 11,20.5 h 2" sodipodi:nodetypes="cc" />
   </g>
   <g id="g2044" transform="matrix(1.3253403,0,0,1,-2.8350037,-3.1011537)" style="display:inline;stroke-width:0.868633">
      <path style="color:#000000;font-style:normal;font-variant:normal;font-weight:normal;font-stretch:normal;font-size:medium;line-height:normal;font-family:sans-serif;font-variant-ligatures:normal;font-variant-position:normal;font-variant-caps:normal;font-variant-numeric:normal;font-variant-alternates:normal;font-variant-east-asian:normal;font-feature-settings:normal;font-variation-settings:normal;text-indent:0;text-align:start;text-decoration:none;text-decoration-line:none;text-decoration-style:solid;text-decoration-color:#000000;letter-spacing:normal;word-spacing:normal;text-transform:none;writing-mode:lr-tb;direction:ltr;text-orientation:mixed;dominant-baseline:auto;baseline-shift:baseline;text-anchor:start;white-space:normal;shape-padding:0;shape-margin:0;inline-size:0;clip-rule:nonzero;display:inline;overflow:visible;visibility:visible;opacity:1;isolation:auto;mix-blend-mode:normal;color-interpolation:sRGB;color-interpolation-filters:linearRGB;solid-color:#000000;solid-opacity:1;vector-effect:none;fill:#DC7A8C;fill-opacity:1;fill-rule:nonzero;stroke:none;stroke-width:1.73727px;stroke-linecap:round;stroke-linejoin:round;stroke-miterlimit:4;stroke-dasharray:none;stroke-dashoffset:0;stroke-opacity:1;color-rendering:auto;image-rendering:auto;shape-rendering:auto;text-rendering:auto;enable-background:accumulate;stop-color:#000000;stop-opacity:1" d="m 4.0058594,13.4375 c -0.5522847,0 -0.7895589,0.578174 -1,1 -0.6590225,1.321 -0.8054951,3.169119 -0.6184761,4.38539 0.3256833,2.118067 1.5908746,2.631602 2.9404947,2.984886 C 7,22.245481 10.175781,21.04883 10.175781,21.04883 c 0.549555,-0.05484 1,-0.447715 1,-1 0,-0.552285 -0.447715,-1 -1,-1 0,0 -3.0894053,-0.122415 -4.3079676,-1.340978 C 4.780913,16.62095 5,15.5 5.0058594,14.4375 c 0.0026,-0.471397 -0.4477153,-1 -1,-1 z" id="path2020" sodipodi:nodetypes="sassssssss" />
      <path id="polyline1446" style="fill:none;stroke:#DC7A8C;stroke-width:1.73726;stroke-linecap:round;stroke-linejoin:round;stroke-miterlimit:4;stroke-dasharray:none;stroke-opacity:1" d="m 8.0337885,17.101154 2.4259995,2.999382 -2.4259995,3.000618" sodipodi:nodetypes="ccc" />
   </g>
   <g id="g896" transform="translate(4)">
      <rect class="cls-6" x="10" y="11" width="4" height="11" id="rect888" />
      <path id="path890" style="fill:none;stroke:#8f8f8f;stroke-width:1;stroke-linecap:round;stroke-linejoin:round;stroke-miterlimit:4;stroke-dasharray:none" d="m 11,12.5 h 2" sodipodi:nodetypes="cc" />
      <path id="path892" style="fill:none;stroke:#8f8f8f;stroke-width:1;stroke-linecap:round;stroke-linejoin:round;stroke-miterlimit:4;stroke-dasharray:none" d="m 11,14.5 h 2" sodipodi:nodetypes="cc" />
      <path id="path894" style="fill:none;stroke:#8f8f8f;stroke-width:1;stroke-linecap:round;stroke-linejoin:round;stroke-miterlimit:4;stroke-dasharray:none" d="m 11,20.5 h 2" sodipodi:nodetypes="cc" />
   </g>
   <g id="g906" transform="rotate(-10.499657,15.007777,-32.440516)" inkscape:transform-center-x="-0.9609981" inkscape:transform-center-y="-5.7472313">
      <rect class="cls-6" x="10" y="11" width="4" height="11" id="rect898" style="fill:#42B8EB;fill-opacity:1" />
      <path id="path900" style="fill:none;stroke:#8f8f8f;stroke-width:1;stroke-linecap:round;stroke-linejoin:round;stroke-miterlimit:4;stroke-dasharray:none" d="m 11,12.5 h 2" sodipodi:nodetypes="cc" />
      <path id="path902" style="fill:none;stroke:#8f8f8f;stroke-width:1;stroke-linecap:round;stroke-linejoin:round;stroke-miterlimit:4;stroke-dasharray:none" d="m 11,14.5 h 2" sodipodi:nodetypes="cc" />
      <path id="path904" style="fill:none;stroke:#8f8f8f;stroke-width:1;stroke-linecap:round;stroke-linejoin:round;stroke-miterlimit:4;stroke-dasharray:none" d="m 11,20.5 h 2" sodipodi:nodetypes="cc" />
   </g>
</svg>
