<?xml version="1.0" encoding="UTF-8" standalone="no"?>
<svg
   xmlns:dc="http://purl.org/dc/elements/1.1/"
   xmlns:cc="http://creativecommons.org/ns#"
   xmlns:rdf="http://www.w3.org/1999/02/22-rdf-syntax-ns#"
   xmlns:svg="http://www.w3.org/2000/svg"
   xmlns="http://www.w3.org/2000/svg"
   xmlns:sodipodi="http://sodipodi.sourceforge.net/DTD/sodipodi-0.dtd"
   xmlns:inkscape="http://www.inkscape.org/namespaces/inkscape"
   id="Слой_1"
   data-name="Слой 1"
   viewBox="0 0 24 24"
   version="1.1"
   sodipodi:docname="mw_add_stub.svg"
   inkscape:version="1.0.1 (3bc2e813f5, 2020-09-07)">
  <sodipodi:namedview
     pagecolor="#111111"
     bordercolor="#666666"
     borderopacity="1"
     objecttolerance="10"
     gridtolerance="10"
     guidetolerance="10"
     inkscape:pageopacity="0"
     inkscape:pageshadow="2"
     inkscape:window-width="1609"
     inkscape:window-height="1286"
     id="namedview30"
     showgrid="true"
     inkscape:zoom="27.961538"
     inkscape:cx="12.010763"
     inkscape:cy="13.436683"
     inkscape:window-x="0"
     inkscape:window-y="37"
     inkscape:window-maximized="0"
     inkscape:document-rotation="0"
     inkscape:current-layer="Слой_1">
    <inkscape:grid
       type="xygrid"
       id="grid_kicad"
       spacingx="0.5"
       spacingy="0.5"
       color="#9999ff"
       opacity="0.13"
       empspacing="2" />
  </sodipodi:namedview>
  <metadata
     id="metadata43">
    <rdf:RDF>
      <cc:Work
         rdf:about="">
        <cc:license
           rdf:resource="http://creativecommons.org/licenses/by-sa/4.0/" />
        <dc:format>image/svg+xml</dc:format>
        <dc:type
           rdf:resource="http://purl.org/dc/dcmitype/StillImage" />
        <dc:title>add_arc</dc:title>
      </cc:Work>
      <cc:License
         rdf:about="http://creativecommons.org/licenses/by-sa/4.0/">
        <cc:permits
           rdf:resource="http://creativecommons.org/ns#Reproduction" />
        <cc:permits
           rdf:resource="http://creativecommons.org/ns#Distribution" />
        <cc:requires
           rdf:resource="http://creativecommons.org/ns#Notice" />
        <cc:requires
           rdf:resource="http://creativecommons.org/ns#Attribution" />
        <cc:permits
           rdf:resource="http://creativecommons.org/ns#DerivativeWorks" />
        <cc:requires
           rdf:resource="http://creativecommons.org/ns#ShareAlike" />
      </cc:License>
    </rdf:RDF>
  </metadata>
  <defs
     id="defs25855">
    <style
       id="style25853">.cls-1{fill:#42B8EB;}.cls-2{fill:#F4EFF3;}.cls-3{fill:none;stroke:#F4EFF3;stroke-linecap:round;stroke-linejoin:round;}</style>
  </defs>
  <title
     id="title25857">mw_add_stub</title>
  <rect
     class="cls-1"
     x="3.9988999"
     y="0"
     width="8"
     height="24"
     id="rect25859" />
  <path
     class="cls-2"
     d="m 12.5647,0.1689 a 0.5612,0.5612 0 0 0 0.3968,0.9582 l 6.4743,9e-4 a 0.5613,0.5613 0 1 0 0,-1.1225 l -6.4743,-0.001 a 0.56,0.56 0 0 0 -0.3968,0.1644 z"
     id="path25861" />
  <path
     class="cls-2"
     d="m 12.489,23.03 a 0.5612,0.5612 0 0 0 0.3968,0.9582 l 6.5541,0.001 a 0.5613,0.5613 0 0 0 0,-1.1226 l -6.554,-10e-4 A 0.56,0.56 0 0 0 12.489,23.03 Z"
     id="path25863" />
  <line
     class="cls-3"
     x1="17.622"
     y1="18.4293"
     x2="17.621901"
     y2="5.5393"
     id="line25865" />
  <polygon
     class="cls-2"
     points="18.622,23.859 17.169,18.439 20.075,18.439 "
     id="polygon25867"
     transform="translate(-1,-1)" />
  <polygon
     class="cls-2"
     points="18.622,2.11 17.169,7.53 20.075,7.53 "
     id="polygon25869"
     transform="translate(-1,-1)" />
</svg>
