<?xml version="1.0" encoding="UTF-8" standalone="no"?>
<svg
   xmlns:dc="http://purl.org/dc/elements/1.1/"
   xmlns:cc="http://creativecommons.org/ns#"
   xmlns:rdf="http://www.w3.org/1999/02/22-rdf-syntax-ns#"
   xmlns:svg="http://www.w3.org/2000/svg"
   xmlns="http://www.w3.org/2000/svg"
   xmlns:sodipodi="http://sodipodi.sourceforge.net/DTD/sodipodi-0.dtd"
   xmlns:inkscape="http://www.inkscape.org/namespaces/inkscape"
   version="1.1"
   id="Слой_1"
   inkscape:export-filename="/Users/jeff/kicad_dev/kicad/bitmaps_png/png_26/plot.png"
   inkscape:export-xdpi="96"
   inkscape:export-ydpi="96"
   inkscape:version="1.0.1 (c497b03c, 2020-09-10)"
   sodipodi:docname="plot.svg"
   x="0px"
   y="0px"
   viewBox="0 0 24 24"
   style="enable-background:new 0 0 24 24;"
   xml:space="preserve"><metadata
   id="metadata851"><rdf:RDF><cc:Work
       rdf:about=""><dc:format>image/svg+xml</dc:format><dc:type
         rdf:resource="http://purl.org/dc/dcmitype/StillImage" /><dc:title>plot</dc:title><cc:license
         rdf:resource="http://creativecommons.org/licenses/by-sa/4.0/" /></cc:Work><cc:License
       rdf:about="http://creativecommons.org/licenses/by-sa/4.0/"><cc:permits
         rdf:resource="http://creativecommons.org/ns#Reproduction" /><cc:permits
         rdf:resource="http://creativecommons.org/ns#Distribution" /><cc:requires
         rdf:resource="http://creativecommons.org/ns#Notice" /><cc:requires
         rdf:resource="http://creativecommons.org/ns#Attribution" /><cc:permits
         rdf:resource="http://creativecommons.org/ns#DerivativeWorks" /><cc:requires
         rdf:resource="http://creativecommons.org/ns#ShareAlike" /></cc:License></rdf:RDF></metadata><defs
   id="defs849" />
<style
   type="text/css"
   id="style833">
	.st0{fill:#545454;stroke:#F4EFF3;}
	.st1{fill:#42B8EB;}
	.st2{fill:#727272;}
	.st3{fill:#F4EFF3;}
</style>
<sodipodi:namedview
   bordercolor="#666666"
   borderopacity="1"
   gridtolerance="10"
   guidetolerance="10"
   id="namedview30"
   inkscape:current-layer="Слой_1"
   inkscape:cx="6.3986701"
   inkscape:cy="12.150375"
   inkscape:document-rotation="0"
   inkscape:pageopacity="0"
   inkscape:pageshadow="2"
   inkscape:window-height="995"
   inkscape:window-maximized="1"
   inkscape:window-width="1920"
   inkscape:window-x="1280"
   inkscape:window-y="23"
   inkscape:zoom="19.351988"
   objecttolerance="10"
   pagecolor="#111111"
   showgrid="true">
	<inkscape:grid
   color="#9999ff"
   empspacing="2"
   id="grid_kicad"
   opacity="0.13"
   spacingx="0.5"
   spacingy="0.5"
   type="xygrid">
		</inkscape:grid>
</sodipodi:namedview>
<title
   id="title26467">plot</title>
<path
   id="polygon26469"
   sodipodi:nodetypes="cccccc"
   class="st0"
   d="M6.5,1.5h11V12L16,14l-9.5,0V1.5z" />
<polygon
   id="polygon26471"
   class="st1"
   points="18,10 16,12 16,10 " />
<path
   id="path26473"
   inkscape:connector-curvature="0"
   class="st2"
   d="M1.1,4h21.8C23.5,4,24,4.5,24,5.1v5.8c0,0.6-0.5,1.1-1.1,1.1  h0H1.1C0.5,12,0,11.5,0,10.9V5.1C0,4.5,0.5,4,1.1,4L1.1,4z"
   style="fill:#F4EFF3;fill-opacity:1" />
<path
   id="polygon26475"
   sodipodi:nodetypes="cccccc"
   class="st0"
   d="M6.5,8.5c4,0,0.3,0,11,0v8l-2,2h-9V8.5z" />
<polygon
   id="polygon26477"
   class="st3"
   points="17.5,16 15,18.6 15,16 "
   style="fill:#F4EFF3;fill-opacity:1" />
<rect
   id="rect26479"
   x="2"
   y="8"
   class="st3"
   width="20"
   height="1"
   style="fill:#727272;fill-opacity:1" />
<rect
   id="rect26485"
   x="2"
   y="12"
   class="st3"
   width="1"
   height="10"
   style="fill:#F4EFF3;fill-opacity:1" />
<rect
   id="rect26487"
   x="0"
   y="22"
   class="st3"
   width="5"
   height="1"
   style="fill:#F4EFF3;fill-opacity:1" />
<rect
   id="rect26489"
   x="21"
   y="12"
   class="st3"
   width="1"
   height="10"
   style="fill:#F4EFF3;fill-opacity:1" />
<rect
   id="rect26491"
   x="19"
   y="22"
   class="st3"
   width="5"
   height="1"
   style="fill:#F4EFF3;fill-opacity:1" />
</svg>
