<?xml version="1.0" encoding="UTF-8" standalone="no"?>
<svg
   xmlns:dc="http://purl.org/dc/elements/1.1/"
   xmlns:cc="http://creativecommons.org/ns#"
   xmlns:rdf="http://www.w3.org/1999/02/22-rdf-syntax-ns#"
   xmlns:svg="http://www.w3.org/2000/svg"
   xmlns="http://www.w3.org/2000/svg"
   xmlns:sodipodi="http://sodipodi.sourceforge.net/DTD/sodipodi-0.dtd"
   xmlns:inkscape="http://www.inkscape.org/namespaces/inkscape"
   id="Слой_1"
   data-name="Слой 1"
   viewBox="0 0 24 24"
   version="1.1"
   sodipodi:docname="show_footprint.svg"
   inkscape:version="1.0.1 (3bc2e813f5, 2020-09-07)"
   inkscape:export-filename="/Users/jeff/kicad_dev/kicad/bitmaps_png/png_26/footprint_browser.png"
   inkscape:export-xdpi="96"
   inkscape:export-ydpi="96">
  <sodipodi:namedview
     pagecolor="#111111"
     bordercolor="#666666"
     borderopacity="1"
     objecttolerance="10"
     gridtolerance="10"
     guidetolerance="10"
     inkscape:pageopacity="0"
     inkscape:pageshadow="2"
     inkscape:window-width="1920"
     inkscape:window-height="1017"
     id="namedview30"
     showgrid="true"
     inkscape:zoom="23.729469"
     inkscape:cx="16.576995"
     inkscape:cy="16.166898"
     inkscape:window-x="-8"
     inkscape:window-y="-8"
     inkscape:window-maximized="1"
     inkscape:current-layer="g2825"
     inkscape:document-rotation="0"
     inkscape:measure-start="31,12"
     inkscape:measure-end="0,0">
    <inkscape:grid
       type="xygrid"
       id="grid873" />
  </sodipodi:namedview>
  <metadata
     id="metadata43">
    <rdf:RDF>
      <cc:Work
         rdf:about="">
        <cc:license
           rdf:resource="http://creativecommons.org/licenses/by-sa/4.0/" />
        <dc:format>image/svg+xml</dc:format>
        <dc:type
           rdf:resource="http://purl.org/dc/dcmitype/StillImage" />
        <dc:title>module_editor</dc:title>
      </cc:Work>
      <cc:License
         rdf:about="http://creativecommons.org/licenses/by-sa/4.0/">
        <cc:permits
           rdf:resource="http://creativecommons.org/ns#Reproduction" />
        <cc:permits
           rdf:resource="http://creativecommons.org/ns#Distribution" />
        <cc:requires
           rdf:resource="http://creativecommons.org/ns#Notice" />
        <cc:requires
           rdf:resource="http://creativecommons.org/ns#Attribution" />
        <cc:permits
           rdf:resource="http://creativecommons.org/ns#DerivativeWorks" />
        <cc:requires
           rdf:resource="http://creativecommons.org/ns#ShareAlike" />
      </cc:License>
    </rdf:RDF>
  </metadata>
  <defs
     id="defs5">
    <style
       id="style3">.cls-1{fill:none;stroke:#F4EFF3;stroke-linecap:round;stroke-linejoin:round;}.cls-2{fill:#42B8EB;}.cls-3{fill:#DC7A8C;}.cls-4{fill:#111111;}</style>
  </defs>
  <title
     id="title7">module_editor</title>
  <polygon
     class="cls-1"
     points="21.531,4.063 1.247,4.063 1.247,8.578 2.995,10.153 2.995,12.325 1.247,13.899 1.247,18.922 21.516,18.922 "
     id="polygon9"
     transform="matrix(1.1338986,0,0,1.1442747,-0.91662774,-1.1958747)"
     style="stroke-width:0.877906" />
  <rect
     class="cls-2"
     x="2.9605565"
     y="0.0042999983"
     width="5.0280428"
     height="6.9999995"
     id="rect19"
     style="stroke-width:1" />
  <rect
     class="cls-2"
     x="9.960556"
     y="0.0042999983"
     width="5.0280428"
     height="6.9999995"
     id="rect875"
     style="stroke-width:1" />
  <rect
     class="cls-2"
     x="16.960556"
     y="0.0042999983"
     width="5.0280428"
     height="6.9999995"
     id="rect877"
     style="stroke-width:1" />
  <rect
     class="cls-2"
     x="2.9605565"
     y="17.004299"
     width="5.0280428"
     height="6.9999995"
     id="rect879"
     style="stroke-width:1" />
  <rect
     class="cls-2"
     x="9.960556"
     y="17.004299"
     width="5.0280428"
     height="6.9999995"
     id="rect881"
     style="stroke-width:1" />
  <rect
     class="cls-2"
     x="16.960556"
     y="17.004299"
     width="5.0280428"
     height="6.9999995"
     id="rect883"
     style="stroke-width:1" />
  <g
     style="stroke-width:1.00092"
     transform="matrix(0.99907229,0,0,0.99907223,16.621326,0.47789045)"
     id="g2825">
    <path
       inkscape:connector-curvature="0"
       sodipodi:nodetypes="sccccs"
       style="fill:#c22341;fill-opacity:1;stroke-width:1.00093"
       id="path2817"
       d="M 7.162202,23.370209 C 6.5124046,24.078317 5.4928555,23.954675 4.8015019,23.26329 l -1.7168621,-1.653884 2.2532079,-2.253298 1.7169509,1.653973 c 0.657845,0.790765 0.7644375,1.644134 0.1074034,2.360128 z"
       class="cls-4" />
    <g
       transform="matrix(3.7830372,0,0,3.7830374,-13.47019,2.2657407)"
       id="g2823">
      <path
         inkscape:connector-curvature="0"
         style="opacity:1;fill:none;stroke:#c22340;stroke-width:0.635;stroke-miterlimit:4;stroke-dasharray:none;stroke-opacity:1"
         id="path2819"
         d="M 4.3134957,2.271524 A 1.4570598,1.4568993 0 1 1 2.2538348,2.272498 1.4563738,1.4562132 0 0 1 4.3134957,2.271524 Z"
         class="cls-4" />
    </g>
    <g
       id="g851"
       transform="matrix(2.3621654,0,0,2.3621656,-8.8058418,6.9577514)"
       style="opacity:1;fill:#111111;fill-opacity:0.45098;stroke:none;stroke-width:1.60299">
      <path
         class="cls-5"
         d="m 4.5707641,2.0043869 a 1.8322519,1.8324268 0 1 1 -2.5912073,0 1.8322519,1.8324268 0 0 1 2.5912073,0 z"
         id="path849"
         style="fill:#111111;fill-opacity:0.45098;stroke:none;stroke-width:0.25424;stroke-miterlimit:4;stroke-dasharray:none;stroke-opacity:1"
         inkscape:connector-curvature="0" />
    </g>
    <rect
       style="fill:#c22341;fill-opacity:1;stroke:none;stroke-width:1.00093;stroke-linecap:round;stroke-linejoin:round"
       id="rect2815"
       transform="rotate(-45.000001)"
       height="3.0027859"
       width="2.001857"
       y="15.823131"
       x="-12.42106"
       class="cls-3" />
  </g>
</svg>
