<?xml version="1.0" encoding="UTF-8" standalone="no"?>
<svg
   xmlns:dc="http://purl.org/dc/elements/1.1/"
   xmlns:cc="http://creativecommons.org/ns#"
   xmlns:rdf="http://www.w3.org/1999/02/22-rdf-syntax-ns#"
   xmlns:svg="http://www.w3.org/2000/svg"
   xmlns="http://www.w3.org/2000/svg"
   xmlns:sodipodi="http://sodipodi.sourceforge.net/DTD/sodipodi-0.dtd"
   xmlns:inkscape="http://www.inkscape.org/namespaces/inkscape"
   id="Слой_1"
   data-name="Слой 1"
   viewBox="0 0 24 24"
   version="1.1"
   sodipodi:docname="show_ratsnest.svg"
   inkscape:version="1.0.1 (c497b03c, 2020-09-10)">
  <sodipodi:namedview
     pagecolor="#111111"
     bordercolor="#666666"
     borderopacity="1"
     objecttolerance="10"
     gridtolerance="10"
     guidetolerance="10"
     inkscape:pageopacity="0"
     inkscape:pageshadow="2"
     inkscape:window-width="1280"
     inkscape:window-height="715"
     id="namedview30"
     showgrid="true"
     inkscape:zoom="20.686995"
     inkscape:cx="12.336267"
     inkscape:cy="16.23711"
     inkscape:window-x="0"
     inkscape:window-y="23"
     inkscape:window-maximized="0"
     inkscape:document-rotation="0"
     inkscape:current-layer="Слой_1">
    <inkscape:grid
       type="xygrid"
       id="grid_kicad"
       spacingx="0.5"
       spacingy="0.5"
       color="#9999ff"
       opacity="0.13"
       empspacing="2" />
  </sodipodi:namedview>
  <metadata
     id="metadata43">
    <rdf:RDF>
      <cc:Work
         rdf:about="">
        <cc:license
           rdf:resource="http://creativecommons.org/licenses/by-sa/4.0/" />
        <dc:format>image/svg+xml</dc:format>
        <dc:type
           rdf:resource="http://purl.org/dc/dcmitype/StillImage" />
        <dc:title>add_arc</dc:title>
      </cc:Work>
      <cc:License
         rdf:about="http://creativecommons.org/licenses/by-sa/4.0/">
        <cc:permits
           rdf:resource="http://creativecommons.org/ns#Reproduction" />
        <cc:permits
           rdf:resource="http://creativecommons.org/ns#Distribution" />
        <cc:requires
           rdf:resource="http://creativecommons.org/ns#Notice" />
        <cc:requires
           rdf:resource="http://creativecommons.org/ns#Attribution" />
        <cc:permits
           rdf:resource="http://creativecommons.org/ns#DerivativeWorks" />
        <cc:requires
           rdf:resource="http://creativecommons.org/ns#ShareAlike" />
      </cc:License>
    </rdf:RDF>
  </metadata>
  <defs
     id="defs159857">
    <style
       id="style159855">.cls-1{fill:#8f8f8f;}.cls-2{fill:#F4EFF3;}.cls-3{fill:#42B8EB;}</style>
  </defs>
  <title
     id="title159859">show_ratsnest</title>
  <path
     class="cls-2"
     d="M 9.6860411,7.5392 24.050441,1.411 24,2.5 10.078641,8.4592 Z"
     id="path159863"
     sodipodi:nodetypes="ccccc" />
  <path
     class="cls-2"
     d="M 12.0908,23.9992 V 23.9959 L 9.3755,7.916 a 0.5057,0.5057 0 0 0 -0.5761,-0.41 0.5,0.5 0 0 0 -0.41,0.5762 l 2.6879,15.9172 z"
     id="path159865" />
  <path
     class="cls-2"
     d="M 9.0894,7.5439 0,3.9557 v 1.0737 l 8.6754,3.4247 a 0.4922,0.4922 0 0 0 0.207,0.0449 0.5,0.5 0 0 0 0.207,-0.9551 z"
     id="path159867" />
  <path
     class="cls-3"
     d="M 11.7432,7.999 A 2.8084,2.8084 0 1 1 8.9347,5.19 2.8086,2.8086 0 0 1 11.7432,7.999 Z"
     id="path159869"
     style="fill:#F4EFF3;fill-opacity:1" />
  <path
     class="cls-1"
     d="m 10.9345,7.999 a 2,2 0 1 1 -2,-2 2,2 0 0 1 2,2 z"
     id="path159871"
     style="fill:#111111;fill-opacity:1" />
</svg>
